info:
  name: Get affected endpoints for the fabric upgrade
  type: http
  seq: 33
  tags:
    - Compliance Conformance and Update Analysis

http:
  method: GET
  url: "{{controllerProtocol}}{{controllerIp}}{{analyzePath}}/fabricSoftware/upgradeReports/:reportId/instances/:instanceId/affectedEndpoints"
  params:
    - name: fabricName
      value: ""
      type: query
      description: Name of the fabric
    - name: reportId
      value: ""
      type: path
      description: Report id for upgrade analysis
    - name: instanceId
      value: ""
      type: path
      description: Instance id for a previous run of pre-validation check
    - name: clusterName
      value: ""
      type: query
      description: Name of the target Nexus Dashboard cluster to execute this API, in a multi-cluster deployment
      disabled: true
    - name: sort
      value: ""
      type: query
      description: |
        Sort the records by the declared fields in either ascending (default) or descending (:desc) order
        Ascending order by default: "field1"
        Specific order for one field: "field1:asc" or "field1:desc"
        Specific order with multiple fields: "field1:asc,field2:desc"
      disabled: true
    - name: offset
      value: ""
      type: query
      description: Number of records to skip for pagination
      disabled: true
    - name: max
      value: ""
      type: query
      description: Number of records to return
      disabled: true
    - name: filter
      value: ""
      type: query
      description: Lucene format filter - Filter the response based on this filter field
      disabled: true
  auth: inherit

settings:
  encodeUrl: true
  timeout: 0
  followRedirects: true
  maxRedirects: 5

examples:
  - name: 200 Response
    description: OK
    request:
      url: "{{controllerProtocol}}{{controllerIp}}{{analyzePath}}/fabricSoftware/upgradeReports/:reportId/instances/:instanceId/affectedEndpoints"
      method: GET
      params:
        - name: fabricName
          value: ""
          type: query
          description: Name of the fabric
        - name: reportId
          value: ""
          type: path
          description: Report id for upgrade analysis
        - name: instanceId
          value: ""
          type: path
          description: Instance id for a previous run of pre-validation check
        - name: clusterName
          value: ""
          type: query
          description: Name of the target Nexus Dashboard cluster to execute this API, in a multi-cluster deployment
          disabled: true
        - name: sort
          value: ""
          type: query
          description: |
            Sort the records by the declared fields in either ascending (default) or descending (:desc) order
            Ascending order by default: "field1"
            Specific order for one field: "field1:asc" or "field1:desc"
            Specific order with multiple fields: "field1:asc,field2:desc"
          disabled: true
        - name: offset
          value: ""
          type: query
          description: Number of records to skip for pagination
          disabled: true
        - name: max
          value: ""
          type: query
          description: Number of records to return
          disabled: true
        - name: filter
          value: ""
          type: query
          description: Lucene format filter - Filter the response based on this filter field
          disabled: true
    response:
      status: 200
      statusText: OK
      headers:
        - name: Content-Type
          value: application/json
      body:
        type: json
        data: |-
          {
            "entries": [
              {
                "fabricName": "US-east",
                "endpointId": "tel1/tn1/bd1_changed/00:14:00:01:00:2B",
                "bridgeDomain": "bd1",
                "modificationType": "creation",
                "endpointGroupName": "epg1",
                "endpointGroup": "uni/tn-mgmt/ap-se_inband/epg-se_inband",
                "encapsulation": "vxlan-900101",
                "mac": "00:11:22:33:44:55",
                "moveType": "LAYER_2",
                "hypervisors": [
                  "hypervisor1"
                ],
                "endpointHostnames": [
                  {
                    "ipAddress": "192.168.1.1",
                    "names": [
                      "hostname1"
                    ]
                  }
                ],
                "tenant": "tenant1",
                "virtualMachineName": "vm1",
                "virtualMachineObjectId": "vm-123456789",
                "hypervisorHostObjectId": "hypervisor-host-987654321",
                "virtualMachineUuid": "50184181-5802-194c-029d-f34779e0caa5",
                "vCenterIpAddress": "192.168.19.45",
                "vCenterHostUuid": "HostSystem:host-1340",
                "hypervisorHostName": "esxi-server-01.example.com",
                "applicationProfile": "appProfile1",
                "bridgeDomainName": "displayBd1",
                "ipCollection": [
                  "192.168.1.1"
                ],
                "vrf": "vrf1",
                "nodeNames": [
                  "node1"
                ],
                "l3InterfaceName": "eth1/1",
                "l3NodeNames": [
                  "node1"
                ],
                "anomalyScore": 10,
                "anomalyLevel": "minor",
                "interfaceNames": [
                  "accBndlGrp_101_pc11"
                ],
                "createTimestamp": "2023-10-01T12:00:00Z",
                "vrfName": "vrfName1",
                "vpcAttached": true,
                "securityGroupDn": "uni/tn-tenant1/ap-ap1/esg-ESG1",
                "securityGroupName": "ESG1",
                "securityGroups": [
                  {
                    "securityGroupName": "MacTagEsg",
                    "securityGroupDn": "uni/tn-tenant1/ap-ap1/esg-MacTagEsg"
                  },
                  {
                    "securityGroupName": "Ipv6TagEsg",
                    "securityGroupDn": "uni/tn-tenant1/ap-ap1/esg-Ipv6TagEsg"
                  }
                ],
                "ipAttributes": [
                  {
                    "ipAddress": "21.0.0.13",
                    "securityGroupDn": "uni/tn-tenant1/ap-ap1/esg-ESG2",
                    "securityGroupName": "ESG2",
                    "endpointGroup": "uni/tn-mgmt/ap-se_inband/epg-epg1",
                    "endpointGroupName": "epg1",
                    "isMicroSegmentedEpg": true
                  },
                  {
                    "ipAddress": "21::13",
                    "securityGroupDn": "uni/tn-tenant1/ap-ap1/esg-ESG3",
                    "securityGroupName": "ESG3",
                    "endpointGroup": "uni/tn-mgmt/ap-se_inband/epg-epg2",
                    "endpointGroupName": "epg2",
                    "isMicroSegmentedEpg": false
                  }
                ],
                "isMicroSegmentedEpg": true,
                "endpointGroups": [
                  {
                    "endpointGroupName": "epg1",
                    "endpointGroup": "uni/tn-mgmt/ap-se_inband/epg-epg1",
                    "isMicroSegmentedEpg": true
                  },
                  {
                    "endpointGroupName": "epg2",
                    "endpointGroup": "uni/tn-mgmt/ap-se_inband/epg-epg2",
                    "isMicroSegmentedEpg": false
                  }
                ]
              }
            ],
            "meta": {
              "counts": {
                "total": 50,
                "remaining": 40
              },
              "links": {
                "next": "https://api.example.com/v1/my-api?offset=40&max=10",
                "previous": "https://api.example.com/v1/my-api?offset=20&max=10"
              }
            }
          }
  - name: 400 Response
    description: Bad Request
    request:
      url: "{{controllerProtocol}}{{controllerIp}}{{analyzePath}}/fabricSoftware/upgradeReports/:reportId/instances/:instanceId/affectedEndpoints"
      method: GET
      params:
        - name: fabricName
          value: ""
          type: query
          description: Name of the fabric
        - name: reportId
          value: ""
          type: path
          description: Report id for upgrade analysis
        - name: instanceId
          value: ""
          type: path
          description: Instance id for a previous run of pre-validation check
        - name: clusterName
          value: ""
          type: query
          description: Name of the target Nexus Dashboard cluster to execute this API, in a multi-cluster deployment
          disabled: true
        - name: sort
          value: ""
          type: query
          description: |
            Sort the records by the declared fields in either ascending (default) or descending (:desc) order
            Ascending order by default: "field1"
            Specific order for one field: "field1:asc" or "field1:desc"
            Specific order with multiple fields: "field1:asc,field2:desc"
          disabled: true
        - name: offset
          value: ""
          type: query
          description: Number of records to skip for pagination
          disabled: true
        - name: max
          value: ""
          type: query
          description: Number of records to return
          disabled: true
        - name: filter
          value: ""
          type: query
          description: Lucene format filter - Filter the response based on this filter field
          disabled: true
    response:
      status: 400
      statusText: Bad Request
      headers:
        - name: Content-Type
          value: application/json
      body:
        type: json
        data: |-
          {
            "message": "Bad Request",
            "description": "The server could not understand the request due to incorrect syntax.",
            "code": 400
          }
  - name: 401 Response
    description: Unauthorized
    request:
      url: "{{controllerProtocol}}{{controllerIp}}{{analyzePath}}/fabricSoftware/upgradeReports/:reportId/instances/:instanceId/affectedEndpoints"
      method: GET
      params:
        - name: fabricName
          value: ""
          type: query
          description: Name of the fabric
        - name: reportId
          value: ""
          type: path
          description: Report id for upgrade analysis
        - name: instanceId
          value: ""
          type: path
          description: Instance id for a previous run of pre-validation check
        - name: clusterName
          value: ""
          type: query
          description: Name of the target Nexus Dashboard cluster to execute this API, in a multi-cluster deployment
          disabled: true
        - name: sort
          value: ""
          type: query
          description: |
            Sort the records by the declared fields in either ascending (default) or descending (:desc) order
            Ascending order by default: "field1"
            Specific order for one field: "field1:asc" or "field1:desc"
            Specific order with multiple fields: "field1:asc,field2:desc"
          disabled: true
        - name: offset
          value: ""
          type: query
          description: Number of records to skip for pagination
          disabled: true
        - name: max
          value: ""
          type: query
          description: Number of records to return
          disabled: true
        - name: filter
          value: ""
          type: query
          description: Lucene format filter - Filter the response based on this filter field
          disabled: true
    response:
      status: 401
      statusText: Unauthorized
      headers:
        - name: Content-Type
          value: application/json
      body:
        type: json
        data: |-
          {
            "message": "Unauthorized",
            "description": "Indicates that the request requires user authentication information.",
            "code": 401
          }
  - name: 403 Response
    description: Forbidden
    request:
      url: "{{controllerProtocol}}{{controllerIp}}{{analyzePath}}/fabricSoftware/upgradeReports/:reportId/instances/:instanceId/affectedEndpoints"
      method: GET
      params:
        - name: fabricName
          value: ""
          type: query
          description: Name of the fabric
        - name: reportId
          value: ""
          type: path
          description: Report id for upgrade analysis
        - name: instanceId
          value: ""
          type: path
          description: Instance id for a previous run of pre-validation check
        - name: clusterName
          value: ""
          type: query
          description: Name of the target Nexus Dashboard cluster to execute this API, in a multi-cluster deployment
          disabled: true
        - name: sort
          value: ""
          type: query
          description: |
            Sort the records by the declared fields in either ascending (default) or descending (:desc) order
            Ascending order by default: "field1"
            Specific order for one field: "field1:asc" or "field1:desc"
            Specific order with multiple fields: "field1:asc,field2:desc"
          disabled: true
        - name: offset
          value: ""
          type: query
          description: Number of records to skip for pagination
          disabled: true
        - name: max
          value: ""
          type: query
          description: Number of records to return
          disabled: true
        - name: filter
          value: ""
          type: query
          description: Lucene format filter - Filter the response based on this filter field
          disabled: true
    response:
      status: 403
      statusText: Forbidden
      headers:
        - name: Content-Type
          value: application/json
      body:
        type: json
        data: |-
          {
            "message": "Forbidden",
            "description": "The client does not have access rights to the content.",
            "code": 403
          }
  - name: 404 Response
    description: Not Found
    request:
      url: "{{controllerProtocol}}{{controllerIp}}{{analyzePath}}/fabricSoftware/upgradeReports/:reportId/instances/:instanceId/affectedEndpoints"
      method: GET
      params:
        - name: fabricName
          value: ""
          type: query
          description: Name of the fabric
        - name: reportId
          value: ""
          type: path
          description: Report id for upgrade analysis
        - name: instanceId
          value: ""
          type: path
          description: Instance id for a previous run of pre-validation check
        - name: clusterName
          value: ""
          type: query
          description: Name of the target Nexus Dashboard cluster to execute this API, in a multi-cluster deployment
          disabled: true
        - name: sort
          value: ""
          type: query
          description: |
            Sort the records by the declared fields in either ascending (default) or descending (:desc) order
            Ascending order by default: "field1"
            Specific order for one field: "field1:asc" or "field1:desc"
            Specific order with multiple fields: "field1:asc,field2:desc"
          disabled: true
        - name: offset
          value: ""
          type: query
          description: Number of records to skip for pagination
          disabled: true
        - name: max
          value: ""
          type: query
          description: Number of records to return
          disabled: true
        - name: filter
          value: ""
          type: query
          description: Lucene format filter - Filter the response based on this filter field
          disabled: true
    response:
      status: 404
      statusText: Not Found
      headers:
        - name: Content-Type
          value: application/json
      body:
        type: json
        data: |-
          {
            "message": "Not Found",
            "description": "The server cannot find the requested resource.",
            "code": 404
          }
  - name: 500 Response
    description: Internal Server Error
    request:
      url: "{{controllerProtocol}}{{controllerIp}}{{analyzePath}}/fabricSoftware/upgradeReports/:reportId/instances/:instanceId/affectedEndpoints"
      method: GET
      params:
        - name: fabricName
          value: ""
          type: query
          description: Name of the fabric
        - name: reportId
          value: ""
          type: path
          description: Report id for upgrade analysis
        - name: instanceId
          value: ""
          type: path
          description: Instance id for a previous run of pre-validation check
        - name: clusterName
          value: ""
          type: query
          description: Name of the target Nexus Dashboard cluster to execute this API, in a multi-cluster deployment
          disabled: true
        - name: sort
          value: ""
          type: query
          description: |
            Sort the records by the declared fields in either ascending (default) or descending (:desc) order
            Ascending order by default: "field1"
            Specific order for one field: "field1:asc" or "field1:desc"
            Specific order with multiple fields: "field1:asc,field2:desc"
          disabled: true
        - name: offset
          value: ""
          type: query
          description: Number of records to skip for pagination
          disabled: true
        - name: max
          value: ""
          type: query
          description: Number of records to return
          disabled: true
        - name: filter
          value: ""
          type: query
          description: Lucene format filter - Filter the response based on this filter field
          disabled: true
    response:
      status: 500
      statusText: Internal Server Error
      headers:
        - name: Content-Type
          value: application/json
      body:
        type: json
        data: |-
          {
            "message": "Internal Server Error",
            "description": "The server encountered an unexpected condition that prevented it from fulfilling the request.",
            "code": 500
          }
