info:
  name: List flow troubleshoot jobs of the fabric
  type: http
  seq: 22
  tags:
    - Flow Analytics

http:
  method: GET
  url: "{{controllerProtocol}}{{controllerIp}}{{analyzePath}}/traffic/flows/troubleshootJobs"
  params:
    - name: fabricName
      value: ""
      type: query
      description: Name of the fabric
    - name: clusterName
      value: ""
      type: query
      description: Name of the target Nexus Dashboard cluster to execute this API, in a multi-cluster deployment
      disabled: true
    - name: startDate
      value: ""
      type: query
      description: Start date
      disabled: true
    - name: endDate
      value: ""
      type: query
      description: End date
      disabled: true
    - name: sort
      value: ""
      type: query
      description: |
        Sort the records by the declared fields in either ascending (default) or descending (:desc) order
        Ascending order by default: "field1"
        Specific order for one field: "field1:asc" or "field1:desc"
        Specific order with multiple fields: "field1:asc,field2:desc"
      disabled: true
    - name: offset
      value: ""
      type: query
      description: Number of records to skip for pagination
      disabled: true
    - name: max
      value: ""
      type: query
      description: Number of records to return
      disabled: true
    - name: filter
      value: ""
      type: query
      description: Lucene format filter - Filter the response based on this filter field
      disabled: true
    - name: includeFailedNodes
      value: ""
      type: query
      description: Include list of failed nodes in the response
      disabled: true
  auth: inherit

settings:
  encodeUrl: true
  timeout: 0
  followRedirects: true
  maxRedirects: 5

examples:
  - name: 200 Response
    description: OK
    request:
      url: "{{controllerProtocol}}{{controllerIp}}{{analyzePath}}/traffic/flows/troubleshootJobs"
      method: GET
      params:
        - name: fabricName
          value: ""
          type: query
          description: Name of the fabric
        - name: clusterName
          value: ""
          type: query
          description: Name of the target Nexus Dashboard cluster to execute this API, in a multi-cluster deployment
          disabled: true
        - name: startDate
          value: ""
          type: query
          description: Start date
          disabled: true
        - name: endDate
          value: ""
          type: query
          description: End date
          disabled: true
        - name: sort
          value: ""
          type: query
          description: |
            Sort the records by the declared fields in either ascending (default) or descending (:desc) order
            Ascending order by default: "field1"
            Specific order for one field: "field1:asc" or "field1:desc"
            Specific order with multiple fields: "field1:asc,field2:desc"
          disabled: true
        - name: offset
          value: ""
          type: query
          description: Number of records to skip for pagination
          disabled: true
        - name: max
          value: ""
          type: query
          description: Number of records to return
          disabled: true
        - name: filter
          value: ""
          type: query
          description: Lucene format filter - Filter the response based on this filter field
          disabled: true
        - name: includeFailedNodes
          value: ""
          type: query
          description: Include list of failed nodes in the response
          disabled: true
    response:
      status: 200
      statusText: OK
      headers:
        - name: Content-Type
          value: application/json
      body:
        type: json
        data: |-
          {
            "jobs": [
              {
                "ingressVrf": "ctx",
                "egressVrf": "ctx",
                "srcIp": "22::12",
                "srcPort": "*",
                "dstIp": "21::13",
                "dstPort": "22",
                "protocol": "6",
                "protocolName": "TCP",
                "duration": 3,
                "ingressTenant": "tenant1",
                "egressTenant": "tenant1",
                "fabricName": "ifav22-aci",
                "jobId": "FLOW-d376567c-3fdf-11ef-962a-9e5672429bdc",
                "startTime": "2024-07-11T23:46:42.983260Z",
                "endTime": "2024-07-11T23:54:29.737242Z",
                "status": "STOPPED",
                "jobStatus": "STOPPED",
                "flowStatus": "STOPPED",
                "errorMessage": "",
                "flowRecordCount": 40,
                "hasRecords": true,
                "failedNodes": [
                  {
                    "nodeName": "GX2B-Spine",
                    "serialNumber": "FDO27040A0P",
                    "failReason": "Unsupported switch release 10.4(1)IMG9(0.144)"
                  }
                ],
                "ingressVrfTenant": "tenant1",
                "egressVrfTenant": "tenant1"
              }
            ],
            "meta": {
              "counts": {
                "total": 50,
                "remaining": 40
              },
              "links": {
                "next": "https://api.example.com/v1/my-api?offset=40&max=10",
                "previous": "https://api.example.com/v1/my-api?offset=20&max=10"
              }
            }
          }
  - name: 400 Response
    description: Bad Request
    request:
      url: "{{controllerProtocol}}{{controllerIp}}{{analyzePath}}/traffic/flows/troubleshootJobs"
      method: GET
      params:
        - name: fabricName
          value: ""
          type: query
          description: Name of the fabric
        - name: clusterName
          value: ""
          type: query
          description: Name of the target Nexus Dashboard cluster to execute this API, in a multi-cluster deployment
          disabled: true
        - name: startDate
          value: ""
          type: query
          description: Start date
          disabled: true
        - name: endDate
          value: ""
          type: query
          description: End date
          disabled: true
        - name: sort
          value: ""
          type: query
          description: |
            Sort the records by the declared fields in either ascending (default) or descending (:desc) order
            Ascending order by default: "field1"
            Specific order for one field: "field1:asc" or "field1:desc"
            Specific order with multiple fields: "field1:asc,field2:desc"
          disabled: true
        - name: offset
          value: ""
          type: query
          description: Number of records to skip for pagination
          disabled: true
        - name: max
          value: ""
          type: query
          description: Number of records to return
          disabled: true
        - name: filter
          value: ""
          type: query
          description: Lucene format filter - Filter the response based on this filter field
          disabled: true
        - name: includeFailedNodes
          value: ""
          type: query
          description: Include list of failed nodes in the response
          disabled: true
    response:
      status: 400
      statusText: Bad Request
      headers:
        - name: Content-Type
          value: application/json
      body:
        type: json
        data: |-
          {
            "message": "Bad Request",
            "description": "The server could not understand the request due to incorrect syntax.",
            "code": 400
          }
  - name: 401 Response
    description: Unauthorized
    request:
      url: "{{controllerProtocol}}{{controllerIp}}{{analyzePath}}/traffic/flows/troubleshootJobs"
      method: GET
      params:
        - name: fabricName
          value: ""
          type: query
          description: Name of the fabric
        - name: clusterName
          value: ""
          type: query
          description: Name of the target Nexus Dashboard cluster to execute this API, in a multi-cluster deployment
          disabled: true
        - name: startDate
          value: ""
          type: query
          description: Start date
          disabled: true
        - name: endDate
          value: ""
          type: query
          description: End date
          disabled: true
        - name: sort
          value: ""
          type: query
          description: |
            Sort the records by the declared fields in either ascending (default) or descending (:desc) order
            Ascending order by default: "field1"
            Specific order for one field: "field1:asc" or "field1:desc"
            Specific order with multiple fields: "field1:asc,field2:desc"
          disabled: true
        - name: offset
          value: ""
          type: query
          description: Number of records to skip for pagination
          disabled: true
        - name: max
          value: ""
          type: query
          description: Number of records to return
          disabled: true
        - name: filter
          value: ""
          type: query
          description: Lucene format filter - Filter the response based on this filter field
          disabled: true
        - name: includeFailedNodes
          value: ""
          type: query
          description: Include list of failed nodes in the response
          disabled: true
    response:
      status: 401
      statusText: Unauthorized
      headers:
        - name: Content-Type
          value: application/json
      body:
        type: json
        data: |-
          {
            "message": "Unauthorized",
            "description": "Indicates that the request requires user authentication information.",
            "code": 401
          }
  - name: 403 Response
    description: Forbidden
    request:
      url: "{{controllerProtocol}}{{controllerIp}}{{analyzePath}}/traffic/flows/troubleshootJobs"
      method: GET
      params:
        - name: fabricName
          value: ""
          type: query
          description: Name of the fabric
        - name: clusterName
          value: ""
          type: query
          description: Name of the target Nexus Dashboard cluster to execute this API, in a multi-cluster deployment
          disabled: true
        - name: startDate
          value: ""
          type: query
          description: Start date
          disabled: true
        - name: endDate
          value: ""
          type: query
          description: End date
          disabled: true
        - name: sort
          value: ""
          type: query
          description: |
            Sort the records by the declared fields in either ascending (default) or descending (:desc) order
            Ascending order by default: "field1"
            Specific order for one field: "field1:asc" or "field1:desc"
            Specific order with multiple fields: "field1:asc,field2:desc"
          disabled: true
        - name: offset
          value: ""
          type: query
          description: Number of records to skip for pagination
          disabled: true
        - name: max
          value: ""
          type: query
          description: Number of records to return
          disabled: true
        - name: filter
          value: ""
          type: query
          description: Lucene format filter - Filter the response based on this filter field
          disabled: true
        - name: includeFailedNodes
          value: ""
          type: query
          description: Include list of failed nodes in the response
          disabled: true
    response:
      status: 403
      statusText: Forbidden
      headers:
        - name: Content-Type
          value: application/json
      body:
        type: json
        data: |-
          {
            "message": "Forbidden",
            "description": "The client does not have access rights to the content.",
            "code": 403
          }
  - name: 500 Response
    description: Internal Server Error
    request:
      url: "{{controllerProtocol}}{{controllerIp}}{{analyzePath}}/traffic/flows/troubleshootJobs"
      method: GET
      params:
        - name: fabricName
          value: ""
          type: query
          description: Name of the fabric
        - name: clusterName
          value: ""
          type: query
          description: Name of the target Nexus Dashboard cluster to execute this API, in a multi-cluster deployment
          disabled: true
        - name: startDate
          value: ""
          type: query
          description: Start date
          disabled: true
        - name: endDate
          value: ""
          type: query
          description: End date
          disabled: true
        - name: sort
          value: ""
          type: query
          description: |
            Sort the records by the declared fields in either ascending (default) or descending (:desc) order
            Ascending order by default: "field1"
            Specific order for one field: "field1:asc" or "field1:desc"
            Specific order with multiple fields: "field1:asc,field2:desc"
          disabled: true
        - name: offset
          value: ""
          type: query
          description: Number of records to skip for pagination
          disabled: true
        - name: max
          value: ""
          type: query
          description: Number of records to return
          disabled: true
        - name: filter
          value: ""
          type: query
          description: Lucene format filter - Filter the response based on this filter field
          disabled: true
        - name: includeFailedNodes
          value: ""
          type: query
          description: Include list of failed nodes in the response
          disabled: true
    response:
      status: 500
      statusText: Internal Server Error
      headers:
        - name: Content-Type
          value: application/json
      body:
        type: json
        data: |-
          {
            "message": "Internal Server Error",
            "description": "The server encountered an unexpected condition that prevented it from fulfilling the request.",
            "code": 500
          }
