info:
  name: List fabric endpoints
  type: http
  seq: 1
  tags:
    - Endpoints

http:
  method: GET
  url: "{{controllerProtocol}}{{controllerIp}}{{analyzePath}}/connectivity/endpoints"
  params:
    - name: clusterName
      value: ""
      type: query
      description: Name of the target Nexus Dashboard cluster to execute this API, in a multi-cluster deployment
      disabled: true
    - name: fabricName
      value: ""
      type: query
      description: Name of the fabric
      disabled: true
    - name: startDate
      value: ""
      type: query
      description: Start date
      disabled: true
    - name: endDate
      value: ""
      type: query
      description: End date
      disabled: true
    - name: offset
      value: ""
      type: query
      description: Number of records to skip for pagination
      disabled: true
    - name: max
      value: ""
      type: query
      description: Number of records to return
      disabled: true
    - name: sort
      value: ""
      type: query
      description: |
        Sort the records by the declared fields in either ascending (default) or descending (:desc) order
        Ascending order by default: "field1"
        Specific order for one field: "field1:asc" or "field1:desc"
        Specific order with multiple fields: "field1:asc,field2:desc"
      disabled: true
    - name: filter
      value: ""
      type: query
      description: Lucene format filter - Filter the response based on this filter field
      disabled: true
  auth: inherit

settings:
  encodeUrl: true
  timeout: 0
  followRedirects: true
  maxRedirects: 5

examples:
  - name: 200 Response
    description: OK
    request:
      url: "{{controllerProtocol}}{{controllerIp}}{{analyzePath}}/connectivity/endpoints"
      method: GET
      params:
        - name: clusterName
          value: ""
          type: query
          description: Name of the target Nexus Dashboard cluster to execute this API, in a multi-cluster deployment
          disabled: true
        - name: fabricName
          value: ""
          type: query
          description: Name of the fabric
          disabled: true
        - name: startDate
          value: ""
          type: query
          description: Start date
          disabled: true
        - name: endDate
          value: ""
          type: query
          description: End date
          disabled: true
        - name: offset
          value: ""
          type: query
          description: Number of records to skip for pagination
          disabled: true
        - name: max
          value: ""
          type: query
          description: Number of records to return
          disabled: true
        - name: sort
          value: ""
          type: query
          description: |
            Sort the records by the declared fields in either ascending (default) or descending (:desc) order
            Ascending order by default: "field1"
            Specific order for one field: "field1:asc" or "field1:desc"
            Specific order with multiple fields: "field1:asc,field2:desc"
          disabled: true
        - name: filter
          value: ""
          type: query
          description: Lucene format filter - Filter the response based on this filter field
          disabled: true
    response:
      status: 200
      statusText: OK
      headers:
        - name: Content-Type
          value: application/json
      body:
        type: json
        data: |-
          {
            "endpoints": [
              {
                "anomalyLevel": "critical",
                "anomalyScore": 63,
                "applicationProfile": "appProfile1",
                "bridgeDomain": "uni/tn-tn10/BD-bd1",
                "bridgeDomainName": "bd1",
                "createTimestamp": "2024-07-24T22:02:34.822Z",
                "encapsulation": "vlan-201",
                "endpointGroup": "uni/tn-mgmt/ap-se_inband/epg-epg1_changed",
                "endpointGroupName": "epg1_changed",
                "endpointGroups": [
                  {
                    "endpointGroup": "uni/tn-mgmt/ap-se_inband/epg-epg1_changed",
                    "endpointGroupName": "epg1_changed",
                    "isMicroSegmentedEpg": false
                  }
                ],
                "endpointHostnames": [
                  {
                    "ipAddress": "50.1.0.42",
                    "names": []
                  }
                ],
                "endpointId": "tel1/tn1/bd1_changed/00:14:00:01:00:29",
                "fabricName": "tel1",
                "hypervisorHostName": "esxi-server-01.example.com",
                "hypervisorHostObjectId": "hypervisor-host-987654321",
                "interfaceNames": [
                  "accBndlGrp_101_pc11"
                ],
                "ipAttributes": [
                  {
                    "endpointGroup": "uni/tn-mgmt/ap-se_inband/epg-epg1_changed",
                    "endpointGroupName": "epg1_changed",
                    "ipAddress": "21.0.0.13",
                    "isMicroSegmentedEpg": false,
                    "securityGroupDn": "uni/tn-tenant1/ap-ap1/esg-ESG2",
                    "securityGroupName": "ESG2"
                  },
                  {
                    "endpointGroup": "uni/tn-mgmt/ap-se_inband/epg-epg1_changed",
                    "endpointGroupName": "epg1_changed",
                    "ipAddress": "21::13",
                    "isMicroSegmentedEpg": false,
                    "securityGroupDn": "uni/tn-tenant1/ap-ap1/esg-ESG3",
                    "securityGroupName": "ESG3"
                  }
                ],
                "ipCollection": [
                  "50.1.0.42"
                ],
                "l3InterfaceName": "eth1/1",
                "l3NodeNames": [
                  "node1"
                ],
                "mac": "00:14:00:01:00:29",
                "modificationType": "modify",
                "nodeName": "tel1-leaf1",
                "nodeNames": [
                  "tel1-leaf1"
                ],
                "securityGroupDn": "uni/tn-tenant1/ap-ap1/esg-ESG1",
                "securityGroupName": "ESG1",
                "securityGroups": [
                  {
                    "securityGroupDn": "uni/tn-tenant1/ap-ap1/esg-ESG1",
                    "securityGroupName": "ESG1"
                  },
                  {
                    "securityGroupDn": "uni/tn-tenant1/ap-ap1/esg-ESG2",
                    "securityGroupName": "ESG2"
                  },
                  {
                    "securityGroupDn": "uni/tn-tenant1/ap-ap1/esg-ESG3",
                    "securityGroupName": "ESG3"
                  }
                ],
                "tenant": "tn1",
                "vCenterHostUuid": "HostSystem:host-1340",
                "vCenterIpAddress": "192.168.19.45",
                "virtualMachineName": "testvm1",
                "virtualMachineObjectId": "vm-123456789",
                "virtualMachineUuid": "50184181-5802-194c-029d-f34779e0caa5",
                "vpcAttached": false,
                "vrf": "uni/tn-tn10/ctx-vrf1",
                "vrfName": "vrf1"
              }
            ],
            "meta": {
              "counts": {
                "remaining": 40,
                "total": 120
              },
              "links": {
                "next": "https://api.example.com/api/v1/analyze/endpoints?fabricName=tel1&offset=50&max=10&sort=anomalyScore&order=desc&startDate=now-1d&endDate=now",
                "previous": "https://api.example.com/api/v1/analyze/endpoints?fabricName=tel1&offset=30&max=10&sort=anomalyScore&order=desc&startDate=now-1d&endDate=now"
              }
            }
          }
  - name: 400 Response
    description: Bad Request
    request:
      url: "{{controllerProtocol}}{{controllerIp}}{{analyzePath}}/connectivity/endpoints"
      method: GET
      params:
        - name: clusterName
          value: ""
          type: query
          description: Name of the target Nexus Dashboard cluster to execute this API, in a multi-cluster deployment
          disabled: true
        - name: fabricName
          value: ""
          type: query
          description: Name of the fabric
          disabled: true
        - name: startDate
          value: ""
          type: query
          description: Start date
          disabled: true
        - name: endDate
          value: ""
          type: query
          description: End date
          disabled: true
        - name: offset
          value: ""
          type: query
          description: Number of records to skip for pagination
          disabled: true
        - name: max
          value: ""
          type: query
          description: Number of records to return
          disabled: true
        - name: sort
          value: ""
          type: query
          description: |
            Sort the records by the declared fields in either ascending (default) or descending (:desc) order
            Ascending order by default: "field1"
            Specific order for one field: "field1:asc" or "field1:desc"
            Specific order with multiple fields: "field1:asc,field2:desc"
          disabled: true
        - name: filter
          value: ""
          type: query
          description: Lucene format filter - Filter the response based on this filter field
          disabled: true
    response:
      status: 400
      statusText: Bad Request
      headers:
        - name: Content-Type
          value: application/json
      body:
        type: json
        data: |-
          {
            "message": "Bad Request",
            "description": "The server could not understand the request due to incorrect syntax.",
            "code": 400
          }
  - name: 401 Response
    description: Unauthorized
    request:
      url: "{{controllerProtocol}}{{controllerIp}}{{analyzePath}}/connectivity/endpoints"
      method: GET
      params:
        - name: clusterName
          value: ""
          type: query
          description: Name of the target Nexus Dashboard cluster to execute this API, in a multi-cluster deployment
          disabled: true
        - name: fabricName
          value: ""
          type: query
          description: Name of the fabric
          disabled: true
        - name: startDate
          value: ""
          type: query
          description: Start date
          disabled: true
        - name: endDate
          value: ""
          type: query
          description: End date
          disabled: true
        - name: offset
          value: ""
          type: query
          description: Number of records to skip for pagination
          disabled: true
        - name: max
          value: ""
          type: query
          description: Number of records to return
          disabled: true
        - name: sort
          value: ""
          type: query
          description: |
            Sort the records by the declared fields in either ascending (default) or descending (:desc) order
            Ascending order by default: "field1"
            Specific order for one field: "field1:asc" or "field1:desc"
            Specific order with multiple fields: "field1:asc,field2:desc"
          disabled: true
        - name: filter
          value: ""
          type: query
          description: Lucene format filter - Filter the response based on this filter field
          disabled: true
    response:
      status: 401
      statusText: Unauthorized
      headers:
        - name: Content-Type
          value: application/json
      body:
        type: json
        data: |-
          {
            "message": "Unauthorized",
            "description": "Indicates that the request requires user authentication information.",
            "code": 401
          }
  - name: 403 Response
    description: Forbidden
    request:
      url: "{{controllerProtocol}}{{controllerIp}}{{analyzePath}}/connectivity/endpoints"
      method: GET
      params:
        - name: clusterName
          value: ""
          type: query
          description: Name of the target Nexus Dashboard cluster to execute this API, in a multi-cluster deployment
          disabled: true
        - name: fabricName
          value: ""
          type: query
          description: Name of the fabric
          disabled: true
        - name: startDate
          value: ""
          type: query
          description: Start date
          disabled: true
        - name: endDate
          value: ""
          type: query
          description: End date
          disabled: true
        - name: offset
          value: ""
          type: query
          description: Number of records to skip for pagination
          disabled: true
        - name: max
          value: ""
          type: query
          description: Number of records to return
          disabled: true
        - name: sort
          value: ""
          type: query
          description: |
            Sort the records by the declared fields in either ascending (default) or descending (:desc) order
            Ascending order by default: "field1"
            Specific order for one field: "field1:asc" or "field1:desc"
            Specific order with multiple fields: "field1:asc,field2:desc"
          disabled: true
        - name: filter
          value: ""
          type: query
          description: Lucene format filter - Filter the response based on this filter field
          disabled: true
    response:
      status: 403
      statusText: Forbidden
      headers:
        - name: Content-Type
          value: application/json
      body:
        type: json
        data: |-
          {
            "message": "Forbidden",
            "description": "The client does not have access rights to the content.",
            "code": 403
          }
  - name: 404 Response
    description: Not Found
    request:
      url: "{{controllerProtocol}}{{controllerIp}}{{analyzePath}}/connectivity/endpoints"
      method: GET
      params:
        - name: clusterName
          value: ""
          type: query
          description: Name of the target Nexus Dashboard cluster to execute this API, in a multi-cluster deployment
          disabled: true
        - name: fabricName
          value: ""
          type: query
          description: Name of the fabric
          disabled: true
        - name: startDate
          value: ""
          type: query
          description: Start date
          disabled: true
        - name: endDate
          value: ""
          type: query
          description: End date
          disabled: true
        - name: offset
          value: ""
          type: query
          description: Number of records to skip for pagination
          disabled: true
        - name: max
          value: ""
          type: query
          description: Number of records to return
          disabled: true
        - name: sort
          value: ""
          type: query
          description: |
            Sort the records by the declared fields in either ascending (default) or descending (:desc) order
            Ascending order by default: "field1"
            Specific order for one field: "field1:asc" or "field1:desc"
            Specific order with multiple fields: "field1:asc,field2:desc"
          disabled: true
        - name: filter
          value: ""
          type: query
          description: Lucene format filter - Filter the response based on this filter field
          disabled: true
    response:
      status: 404
      statusText: Not Found
      headers:
        - name: Content-Type
          value: application/json
      body:
        type: json
        data: |-
          {
            "message": "Not Found",
            "description": "The server cannot find the requested resource.",
            "code": 404
          }
  - name: 500 Response
    description: Internal Server Error
    request:
      url: "{{controllerProtocol}}{{controllerIp}}{{analyzePath}}/connectivity/endpoints"
      method: GET
      params:
        - name: clusterName
          value: ""
          type: query
          description: Name of the target Nexus Dashboard cluster to execute this API, in a multi-cluster deployment
          disabled: true
        - name: fabricName
          value: ""
          type: query
          description: Name of the fabric
          disabled: true
        - name: startDate
          value: ""
          type: query
          description: Start date
          disabled: true
        - name: endDate
          value: ""
          type: query
          description: End date
          disabled: true
        - name: offset
          value: ""
          type: query
          description: Number of records to skip for pagination
          disabled: true
        - name: max
          value: ""
          type: query
          description: Number of records to return
          disabled: true
        - name: sort
          value: ""
          type: query
          description: |
            Sort the records by the declared fields in either ascending (default) or descending (:desc) order
            Ascending order by default: "field1"
            Specific order for one field: "field1:asc" or "field1:desc"
            Specific order with multiple fields: "field1:asc,field2:desc"
          disabled: true
        - name: filter
          value: ""
          type: query
          description: Lucene format filter - Filter the response based on this filter field
          disabled: true
    response:
      status: 500
      statusText: Internal Server Error
      headers:
        - name: Content-Type
          value: application/json
      body:
        type: json
        data: |-
          {
            "message": "Internal Server Error",
            "description": "The server encountered an unexpected condition that prevented it from fulfilling the request.",
            "code": 500
          }
